A Cross-Sectional Study of the Effect of Age, College and Sex on Academic Performance among FUNAAB Graduates Mobilized for NYSC in 2024 – Ayorinde Ayomide David
…
Code

nysc_list_modified_cleaned <- nysc_list_modified %>%    # Cleaning the column name for consistency
    clean_names()

nysc_list_modified_cleaned %>%  # Identifying duplicated rows based on matriculation number
  get_dupes(id)

# A tibble: 1,942 × 10
   id       dupe_count statename  courseof_study   class_of_grade marital_status
   <chr>         <int> <chr>      <chr>            <chr>          <chr>         
 1 000108IC          2 Ogun State AGRICULTURE/B.A… Second Class … S             
 2 000108IC          2 Ogun State AGRICULTURE/B.A… Second Class … S             
 3 001054FH          2 Ogun State AQUACULTURE AND… Second Class … S             
 4 001054FH          2 Ogun State AQUACULTURE AND… Second Class … S             
 5 001145HF          2 Ogun State AGRICULTURE/B.A… Second Class … S             
 6 001145HF          2 Ogun State AGRICULTURE/B.A… Second Class … S             
 7 003265CA          2 Ondo State AGRICULTURE/B.A… Second Class … S             
 8 003265CA          2 Ondo State AGRICULTURE/B.A… Second Class … S             
 9 003289EF          2 Ogun State AGRICULTURE/B.A… Second Class … S             
10 003289EF          2 Ogun State AGRICULTURE/B.A… Second Class … S             
# ℹ 1,932 more rows
# ℹ 4 more variables: gender <chr>, date_of_birth <date>, college <chr>,
#   deptment_code <chr>
…
