Analysis of COVID-19 Dataset – Ayorinde Ayomide David
…
Analyzing fatality by country

Code

covid_selected %>% 
  group_by(country) %>%  
  summarise(number_of_death = sum(death == 1))

# A tibble: 38 × 2
   country     number_of_death
   <chr>                 <int>
 1 Afghanistan               0
 2 Algeria                   0
 3 Australia                 0
 4 Austria                   0
 5 Bahrain                   0
 6 Belgium                   0
 7 Cambodia                  0
 8 Canada                    0
 9 China                    39
10 Croatia                   0
# ℹ 28 more rows
…
