Analysis of NFL Dataset – Ayorinde Ayomide David
…
pbp_selected %>% 
  filter(is.na(away_score))

# A tibble: 0 × 9
# ℹ 9 variables: game_id <chr>, week <int>, home_team <chr>, away_team <chr>,
#   season_type <chr>, game_date <chr>, result <int>, home_score <int>,
#   away_score <int>

# Inspecting the categorical variables from pbp_selected for inconsistency

pbp_selected %>% 
  select(home_team) %>% 
  unique()

# A tibble: 32 × 1
   home_team
   <chr>    
 1 WAS      
 2 NYJ      
 3 ATL      
 4 CLE      
 5 NYG      
 6 KC       
 7 CHI      
 8 BAL      
 9 IND      
10 SEA      
# ℹ 22 more rows

pbp_selected %>% 
  select(away_team) %>% 
  unique()

# A tibble: 32 × 1
   away_team
   <chr>    
 1 ARI      
 2 BUF      
 3 CAR      
 4 CIN      
 5 DAL      
 6 DET      
 7 GB       
 8 HOU      
 9 JAX      
10 LA       
# ℹ 22 more rows
…
pbp_selected_diff2 <- pbp_selected_diff %>% 
  reframe(team = away_team,
          pf = away_pf,
          pa = away_pa) %>% 
  unique()

pbp_diff_comb <- rbind(pbp_selected_diff1,pbp_selected_diff2) %>% 
  group_by(team) %>% 
  mutate(pf = sum(pf), pa = sum(pa), pt_diff = pf - pa) %>% 
  unique()

pbp_diff_comb

# A tibble: 32 × 4
# Groups:   team [32]
   team     pf    pa pt_diff
   <chr> <int> <int>   <int>
 1 WAS     329   518    -189
 2 NYJ     268   355     -87
 3 ATL     321   373     -52
 4 CLE     396   362      34
 5 NYG     266   407    -141
 6 KC      371   294      77
 7 CHI     360   379     -19
 8 BAL     483   280     203
 9 IND     396   415     -19
10 SEA     364   402     -38
# ℹ 22 more rows
…
